Division,WeightClassKg,Place,Name,Team,BodyweightKg,Best3SquatKg,Best3BenchKg,Best3DeadliftKg,TotalKg,Equipment,Event,Sex,BirthDate
Boys,51.71,1,Adam Russell,Howe,50.98,72.57,40.82,90.72,204.12,Single-ply,SBD,M,
Boys,55.79,1,Payton Cole,Bells,53.61,136.08,88.45,136.08,360.61,Single-ply,SBD,M,
Boys,59.87,1,Armando Carrillo,Bells,58.69,136.08,79.38,156.49,371.95,Single-ply,SBD,M,
Boys,59.87,2,Arie Terrazas,Blue Ridge,59.28,120.2,70.31,136.08,326.59,Single-ply,SBD,M,
Boys,67.13,1,Jeffery Boyd,Bells,67,158.76,102.06,176.9,437.72,Single-ply,SBD,M,
Boys,67.13,2,Eduardo Carrillo,Bells,62.6,151.95,92.99,170.1,415.04,Single-ply,SBD,M,
Boys,67.13,3,Asher Reinhard,Howe,62.82,117.93,72.57,127.01,317.51,Single-ply,SBD,M,
Boys,67.13,4,Jacob Fogleman,Whitewright,67.13,113.4,83.91,117.93,315.25,Single-ply,SBD,M,
Boys,67.13,5,Dakota Tinker,Howe,66.32,102.06,72.57,136.08,310.71,Single-ply,SBD,M,
Boys,67.13,6,Aj Partridge,Bells,66.81,88.45,79.38,115.67,283.5,Single-ply,SBD,M,
Boys,67.13,7,Blayze Massey,Bells,67,102.06,52.16,115.67,269.89,Single-ply,SBD,M,
Boys,74.84,1,Ethan Beason,Blue Ridge,73.89,170.1,120.2,188.24,478.54,Single-ply,SBD,M,
Boys,74.84,2,Kaden Pyle,Bells,71.71,170.1,97.52,170.1,437.72,Single-ply,SBD,M,
Boys,74.84,3,Colby Jones,Whitewright,73.62,161.03,106.59,167.83,435.45,Single-ply,SBD,M,
Boys,74.84,4,Preston Carter,Bells,73.3,158.76,97.52,151.95,408.23,Single-ply,SBD,M,
Boys,74.84,5,Hagen York,Whitewright,74.3,136.08,86.18,145.15,367.41,Single-ply,SBD,M,
Boys,74.84,6,Gabe Gibson,Bells,71.8,124.74,74.84,151.95,351.53,Single-ply,SBD,M,
Boys,82.1,1,Angel Jimenez,Blue Ridge,81.78,129.27,65.77,136.08,331.12,Single-ply,SBD,M,
Boys,82.1,2,Andrew Bertrand,Howe,80.78,90.72,79.38,136.08,306.17,Single-ply,SBD,M,
Boys,82.1,DQ,Aiden Burris,Howe,78.88,124.74,65.77,,,Single-ply,SBD,M,
Boys,89.81,1,Raul Hernandez,Howe,89.81,215.46,127.01,204.12,546.58,Single-ply,SBD,M,
Boys,89.81,2,Christian Mena,Bells,88.72,183.7,124.74,188.24,496.68,Single-ply,SBD,M,
Boys,99.79,1,Landon Nelson,Bells,99.29,249.48,133.81,233.6,616.89,Single-ply,SBD,M,
Boys,99.79,2,Ryan Rodriguez,Blue Ridge,93.89,192.78,120.2,190.51,503.49,Single-ply,SBD,M,
Boys,99.79,3,Kasey Sanders,Whitewright,93.35,174.63,117.93,165.56,458.13,Single-ply,SBD,M,
Boys,99.79,4,Jax Gage,Whitewright,98.2,181.44,106.59,170.1,458.13,Single-ply,SBD,M,
Boys,99.79,5,Josh Powell,Blue Ridge,90.72,174.63,83.91,174.63,433.18,Single-ply,SBD,M,
Boys,99.79,6,Jesse Portman,Howe,96.12,136.08,102.06,149.69,387.82,Single-ply,SBD,M,
Boys,99.79,7,Landon Grier,Blue Ridge,93.62,136.08,65.77,138.35,340.19,Single-ply,SBD,M,
Boys,109.77,1,Jackson Adkins,Howe,105.69,215.46,127.01,174.63,517.1,Single-ply,SBD,M,
Boys,109.77,2,Wyatt Langwell,Blue Ridge,103.51,183.7,95.25,183.7,462.66,Single-ply,SBD,M,
Boys,109.77,3,Quinton Douglas,Bells,109.77,183.7,106.59,170.1,460.4,Single-ply,SBD,M,
Boys,109.77,4,Clay White,Howe,106.41,113.4,61.23,142.88,317.51,Single-ply,SBD,M,
Boys,124.74,1,Brandon Woods,Whitewright,113.08,240.4,165.56,229.06,635.03,Single-ply,SBD,M,
Boys,124.74,2,Kellen Rollins,Blue Ridge,117.48,174.63,115.67,183.7,474,Single-ply,SBD,M,
Boys,124.74,3,Luke Jackson,Howe,118.89,204.12,90.72,161.03,455.86,Single-ply,SBD,M,
Boys,124.74,4,Malon Walker,Howe,116.21,124.74,86.18,136.08,347,Single-ply,SBD,M,
Boys,139.71,1,William Fleming,Howe,129.91,233.6,108.86,195.04,537.51,Single-ply,SBD,M,
Boys,139.71+,1,Joesph Monroe,Bells,161.61,197.31,92.99,145.15,435.45,Single-ply,SBD,M,
