Division,WeightClassKg,Place,Name,Team,BodyweightKg,Best3SquatKg,Best3BenchKg,Best3DeadliftKg,TotalKg,Equipment,Event,Sex,BirthDate
Girls,44.23,1,Jacelyn Thornton,Cumby,44.23,138.35,61.23,120.2,319.78,Single-ply,SBD,F,
Girls,44.23,2,Emily Forner,Maypearl,43.36,86.18,52.16,99.79,238.14,Single-ply,SBD,F,
Girls,44.23,3,Alissa Talley,Elkhart,43.36,83.91,36.29,108.86,229.06,Single-ply,SBD,F,
Girls,44.23,4,Lauren Tran,Mount Vernon,43.91,81.65,49.9,97.52,229.06,Single-ply,SBD,F,
Girls,44.23,5,Emily Drake,Redwater,44.09,81.65,47.63,77.11,206.38,Single-ply,SBD,F,
Girls,44.23,6,Alyssa Ray,Maud,44.23,77.11,36.29,88.45,201.85,Single-ply,SBD,F,
Girls,44.23,7,Toyanna Harris,Commerce,41.1,56.7,36.29,92.99,185.97,Single-ply,SBD,F,
Girls,44.23,DQ,Kayleigh Phillips,Daingerfield,44,,,,,Single-ply,SBD,F,
Girls,44.23,DQ,Avery Culpepper,Maud,44,,,,,Single-ply,SBD,F,
Girls,44.23,DQ,Damara Williams,Harleton,44,,,,,Single-ply,SBD,F,
Girls,44.23,DQ,Cristina Ramirez,Quitman,44,,,,,Single-ply,SBD,F,
Girls,44.23,DQ,Kaityln Barnett,Quitman,44,,,,,Single-ply,SBD,F,
Girls,44.23,DQ,Kaitlyn Barnett,Quitman,44,,,,,Single-ply,SBD,F,
Girls,47.85,1,Jozalyn Sewell,Blooming Grove,47.36,131.54,74.84,120.2,326.59,Single-ply,SBD,F,
Girls,47.85,2,Chesney Richards,Corsicana Mildred,47.85,115.67,72.57,122.47,310.71,Single-ply,SBD,F,
Girls,47.85,3,Ja'Miyah Burton,Frankston,47.72,111.13,49.9,122.47,283.5,Single-ply,SBD,F,
Girls,47.85,4,Ella Pearson,Diana New Diana,47.17,111.13,47.63,115.67,274.42,Single-ply,SBD,F,
Girls,47.85,5,Deandra Mills,Trinity,47.81,97.52,54.43,108.86,260.82,Single-ply,SBD,F,
Girls,47.85,6,Laika Sanders,Shelbyville,47.63,108.86,47.63,102.06,258.55,Single-ply,SBD,F,
Girls,47.85,7,Lexia Blanks,Groveton,47.81,111.13,49.9,97.52,258.55,Single-ply,SBD,F,
Girls,47.85,8,Caleigh Cummings,Celeste,47.26,95.25,56.7,92.99,244.94,Single-ply,SBD,F,
Girls,47.85,9,Elizabeth Strube,Gilmer Union Hill,47.63,86.18,54.43,97.52,238.14,Single-ply,SBD,F,
Girls,47.85,10,Kaley Crabtree,Redwater,47.85,77.11,45.36,97.52,219.99,Single-ply,SBD,F,
Girls,47.85,11,Gracie Little,Malakoff,45.81,90.72,38.56,88.45,217.72,Single-ply,SBD,F,
Girls,47.85,DQ,Alannah Collazo,Maud,47.63,,,,,Single-ply,SBD,F,
Girls,47.85,DQ,Felicity Frushour,Redwater,47.63,,,,,Single-ply,SBD,F,
Girls,47.85,DQ,Kara Roddey,Normangee,47.63,,,,,Single-ply,SBD,F,
Girls,51.94,1,Micah Monday,Winnsboro,51.89,145.15,81.65,138.35,365.14,Single-ply,SBD,F,
Girls,51.94,2,Kaylee Bolyard,Hemphill,50.53,133.81,70.31,149.69,353.8,Single-ply,SBD,F,
Girls,51.94,3,Evette Martinez,De Kalb,51.17,120.2,61.23,138.35,319.78,Single-ply,SBD,F,
Girls,51.94,4,Mireya Evans,Gladewater Union Grove,51.89,136.08,68.04,113.4,317.51,Single-ply,SBD,F,
Girls,51.94,5,Elizabeth Preston,Pattonville Prairiland,49.53,111.13,58.97,115.67,285.76,Single-ply,SBD,F,
Girls,51.94,6,Callie Selman,Frankston,50.35,99.79,61.23,113.4,274.42,Single-ply,SBD,F,
Girls,51.94,7,Daisy Quinn,Kerens,50.62,95.25,49.9,120.2,265.35,Single-ply,SBD,F,
Girls,51.94,8,Kaliegh Ball,Malakoff,51.62,102.06,52.16,104.33,258.55,Single-ply,SBD,F,
Girls,51.94,9,Jaycee Eastman,Troup,51.89,97.52,43.09,102.06,242.67,Single-ply,SBD,F,
Girls,51.94,10,Cassidy Shofner,Tatum,51.94,104.33,36.29,99.79,240.4,Single-ply,SBD,F,
Girls,51.94,11,Vanessa Aguilar,Mount Vernon,51.62,99.79,47.63,83.91,231.33,Single-ply,SBD,F,
Girls,51.94,DQ,Haven Benge,Ore City,51.26,108.86,,,,Single-ply,SBD,F,
Girls,56.02,1,Sela Aguilar,Gladewater Union Grove,55.97,131.54,77.11,127.01,335.66,Single-ply,SBD,F,
Girls,56.02,2,Cedriyah Holman,San Augustine,53.98,124.74,61.23,129.27,315.25,Single-ply,SBD,F,
Girls,56.02,3,Isabela Vizcaya,Cumby,55.7,124.74,56.7,131.54,312.98,Single-ply,SBD,F,
Girls,56.02,4,Emaly Sneed,Pattonville Prairiland,55.52,108.86,74.84,124.74,308.44,Single-ply,SBD,F,
Girls,56.02,5,Esmeralda Almaguer,Kerens,55.97,115.67,63.5,122.47,301.64,Single-ply,SBD,F,
Girls,56.02,6,McKenzie Blackwood,Redwater,53.8,127.01,65.77,106.59,299.37,Single-ply,SBD,F,
Girls,56.02,7,Nayeli Davalos,Trinity,55.16,120.2,63.5,113.4,297.1,Single-ply,SBD,F,
Girls,56.02,8,Jordan Stephens #1,Elkhart,55.7,104.33,70.31,117.93,292.57,Single-ply,SBD,F,
Girls,56.02,9,Jaylee Bennett,Winnsboro,55.79,104.33,61.23,124.74,290.3,Single-ply,SBD,F,
Girls,56.02,10,Nikki Turner,Corsicana Mildred,55.7,97.52,65.77,124.74,288.03,Single-ply,SBD,F,
Girls,56.02,11,MaShayla Owens,Palestine Westwood,55.34,113.4,54.43,117.93,285.76,Single-ply,SBD,F,
Girls,56.02,12,Karlee Cochran,Harleton,55.07,113.4,49.9,115.67,278.96,Single-ply,SBD,F,
Girls,56.02,DQ,Brooklyn Marcee,Quitman,55.79,,,,,Single-ply,SBD,F,
Girls,60.1,1,Chloe Ives,Elkhart,58.88,154.22,70.31,138.35,362.87,Single-ply,SBD,F,
Girls,60.1,2,Emily Garcia,Groveton,59.6,138.35,65.77,140.61,344.73,Single-ply,SBD,F,
Girls,60.1,3,Shay Smith #1,Mount Vernon,56.97,133.81,61.23,140.61,335.66,Single-ply,SBD,F,
Girls,60.1,4,Cedazia Holman,San Augustine,59.96,127.01,68.04,127.01,322.05,Single-ply,SBD,F,
Girls,60.1,5,Mya Wilson,Commerce,57.15,122.47,52.16,136.08,310.71,Single-ply,SBD,F,
Girls,60.1,6,Jenna Holland,Gilmer Union Hill,57.7,111.13,63.5,131.54,306.17,Single-ply,SBD,F,
Girls,60.1,7,Addison Dockweiler,Palestine Westwood,60.06,136.08,61.23,106.59,303.91,Single-ply,SBD,F,
Girls,60.1,8,Mariah Sigler,Trinity,60.06,120.2,61.23,120.2,301.64,Single-ply,SBD,F,
Girls,60.1,9,Libby Thornburgh,Gladewater Sabine,58.88,111.13,77.11,92.99,281.23,Single-ply,SBD,F,
Girls,60.1,10,Kitana Vaughn,Winnsboro,59.15,86.18,45.36,127.01,258.55,Single-ply,SBD,F,
Girls,60.1,DQ,GyGy Santoy,Winnsboro,59.87,,,,,Single-ply,SBD,F,
Girls,60.1,DQ,Daisy Garcia,Dawson,59.78,,,,,Single-ply,SBD,F,
Girls,60.1,DQ,Constance Smith,Cumby,59.15,,,,,Single-ply,SBD,F,
Girls,67.36,1,Katelynn Fuller,Lone Oak,66.22,190.51,79.38,154.22,424.11,Single-ply,SBD,F,
Girls,67.36,2,Claire Barham,Blooming Grove,65.41,154.22,77.11,131.54,362.87,Single-ply,SBD,F,
Girls,67.36,3,Gracie Crain,De Kalb,66.77,147.42,63.5,151.95,362.87,Single-ply,SBD,F,
Girls,67.36,4,Kallie King,Simms Bowie,65.59,145.15,61.23,140.61,347,Single-ply,SBD,F,
Girls,67.36,5,Arrana Gonzalez,Elkhart,64.95,142.88,63.5,129.27,335.66,Single-ply,SBD,F,
Girls,67.36,6,Courtney Parker,Kemp,66.13,129.27,68.04,138.35,335.66,Single-ply,SBD,F,
Girls,67.36,7,Tara Wells,Troup,65.59,147.42,54.43,131.54,333.39,Single-ply,SBD,F,
Girls,67.36,8,Arleen Depich,Commerce,65.77,145.15,58.97,127.01,331.12,Single-ply,SBD,F,
Girls,67.36,9,Reina Rodriquez,Pollok Central,66.41,129.27,63.5,131.54,324.32,Single-ply,SBD,F,
Girls,67.36,10,Macie Goode,Harleton,64.59,127.01,68.04,124.74,319.78,Single-ply,SBD,F,
Girls,67.36,11,Amy Jeffries,Pollok Central,66.13,133.81,63.5,120.2,317.51,Single-ply,SBD,F,
Girls,67.36,12,Gabby Hernandez,Groveton,61.42,120.2,65.77,115.67,301.64,Single-ply,SBD,F,
Girls,75.07,1,Makayla Martin,Tatum,74.93,158.76,88.45,154.22,401.43,Single-ply,SBD,F,
Girls,75.07,2,Carlie Rogers,Diana New Diana,69.31,145.15,70.31,163.29,378.75,Single-ply,SBD,F,
Girls,75.07,3,Kaela Davis,Frankston,74.21,149.69,74.84,154.22,378.75,Single-ply,SBD,F,
Girls,75.07,4,Kaitlin Burrell,Mineola,70.94,151.95,58.97,145.15,356.07,Single-ply,SBD,F,
Girls,75.07,5,Bailey Hughes #1,Quitman,72.67,136.08,72.57,136.08,344.73,Single-ply,SBD,F,
Girls,75.07,6,Eva Scott,Harleton,73.48,142.88,74.84,124.74,342.46,Single-ply,SBD,F,
Girls,75.07,7,Emily Foreman,Kerens,73.94,133.81,72.57,136.08,342.46,Single-ply,SBD,F,
Girls,75.07,8,Alyssa Hill,Trinity,71.67,142.88,68.04,124.74,335.66,Single-ply,SBD,F,
Girls,75.07,9,Kamren Moore,Palestine Westwood,72.12,122.47,68.04,138.35,328.85,Single-ply,SBD,F,
Girls,75.07,10,Sydny Blanchard,Kemp,72.12,138.35,65.77,124.74,328.85,Single-ply,SBD,F,
Girls,75.07,DQ,Gatha Davis,Quitman,74.84,,,,,Single-ply,SBD,F,
Girls,75.07,DQ,Jaycee Brooks,Paris Chisum,73.03,,,,,Single-ply,SBD,F,
Girls,75.07,DQ,Stephanie Ruiz,Trinity,72.39,115.67,70.31,,,Single-ply,SBD,F,
Girls,82.33,1,Kenlee Clifton,Emory Rains,80.74,176.9,81.65,136.08,394.63,Single-ply,SBD,F,
Girls,82.33,2,Natalie Jones,Frankston,78.74,151.95,83.91,142.88,378.75,Single-ply,SBD,F,
Girls,82.33,3,Jacey Coston,Dawson,80.47,151.95,79.38,140.61,371.95,Single-ply,SBD,F,
Girls,82.33,4,Kat Ragatz,Winnsboro,79.65,136.08,97.52,136.08,369.68,Single-ply,SBD,F,
Girls,82.33,5,Kj Delancey,Celeste,79.11,154.22,74.84,131.54,360.61,Single-ply,SBD,F,
Girls,82.33,6,Sailor-Moon Nguyen,Frankston,78.02,136.08,79.38,133.81,349.27,Single-ply,SBD,F,
Girls,82.33,7,Emaleigh Barsz,De Kalb,78.11,145.15,63.5,140.61,349.27,Single-ply,SBD,F,
Girls,82.33,8,Mara Latham,Maud,81.47,136.08,70.31,124.74,331.12,Single-ply,SBD,F,
Girls,82.33,9,Guadalupe Garcia #1,Eustace,75.39,142.88,58.97,124.74,326.59,Single-ply,SBD,F,
Girls,82.33,10,Alexis Shelton,Troup,77.29,129.27,68.04,115.67,312.98,Single-ply,SBD,F,
Girls,82.33,DQ,Kassi Peterson,New Waverly,82.1,,,,,Single-ply,SBD,F,
Girls,82.33,DQ,Chloe Meshell,Groveton,79.38,133.81,,,,Single-ply,SBD,F,
Girls,82.33,DQ,Elajah Fugitt,Commerce,77.61,138.35,,,,Single-ply,SBD,F,
Girls,90.04,1,Erika Lowry,Gladewater Sabine,89.45,183.7,104.33,154.22,442.25,Single-ply,SBD,F,
Girls,90.04,2,Izzy Tresca,Mineola,87.63,165.56,83.91,142.88,392.36,Single-ply,SBD,F,
Girls,90.04,3,Jackie Yanez,Rice,89.63,142.88,81.65,142.88,367.41,Single-ply,SBD,F,
Girls,90.04,4,Jessica Hobbs #1,Gladewater Union Grove,83.64,145.15,74.84,136.08,356.07,Single-ply,SBD,F,
Girls,90.04,5,Kylie Voelker,Groveton,89.99,138.35,72.57,142.88,353.8,Single-ply,SBD,F,
Girls,90.04,6,Crystal Almaguer,Kerens,82.92,127.01,72.57,145.15,344.73,Single-ply,SBD,F,
Girls,90.04,7,Kyndyle Michelle,Winnsboro,88.54,142.88,70.31,129.27,342.46,Single-ply,SBD,F,
Girls,90.04,8,Miranda Hays,Kemp,86.91,140.61,65.77,131.54,337.93,Single-ply,SBD,F,
Girls,90.04,9,Dailey Ross,Mount Vernon,83.37,131.54,68.04,131.54,331.12,Single-ply,SBD,F,
Girls,90.04,10,Stacy Perez,Grapeland,87.18,136.08,49.9,136.08,322.05,Single-ply,SBD,F,
Girls,90.04,11,Brooklyn Thompson,Teague,83.19,129.27,63.5,127.01,319.78,Single-ply,SBD,F,
Girls,90.04,12,Andrianna Clay,Trinity,87,147.42,,,147.42,Single-ply,S,F,
Girls,90.04,DQ,Emma Combs,Kerens,82.83,129.27,,108.86,,Single-ply,SBD,F,
Girls,100.02,1,Amaiyah Colclough,Tatum,97.52,174.63,97.52,188.24,460.4,Single-ply,SBD,F,
Girls,100.02,2,Maya Huffman,Gladewater Union Grove,96.25,163.29,79.38,183.7,426.38,Single-ply,SBD,F,
Girls,100.02,3,Jessica Saulters,Lone Oak,99.43,185.97,97.52,140.61,424.11,Single-ply,SBD,F,
Girls,100.02,4,Baylea Densman,Tatum,96.07,181.44,68.04,147.42,396.89,Single-ply,SBD,F,
Girls,100.02,5,Shannon Pel,Commerce,98.16,142.88,77.11,149.69,369.68,Single-ply,SBD,F,
Girls,100.02,6,Shamaya Downie,Palestine Westwood,99.43,136.08,79.38,136.08,351.53,Single-ply,SBD,F,
Girls,100.02,7,Tayla Calico,Gladewater Sabine,93.08,136.08,77.11,117.93,331.12,Single-ply,SBD,F,
Girls,100.02,8,Reagan Shofner,Troup,91.99,131.54,61.23,136.08,328.85,Single-ply,SBD,F,
Girls,100.02,9,Chyenne Rogers,Maud,99.97,122.47,83.91,122.47,328.85,Single-ply,SBD,F,
Girls,100.02,10,Jacinda Williams,Blooming Grove,97.16,129.27,88.45,108.86,326.59,Single-ply,SBD,F,
Girls,100.02,11,DeAundrea Mitchell,Atlanta,99.61,122.47,68.04,131.54,322.05,Single-ply,SBD,F,
Girls,100.02,DQ,Kim Soto,Dawson,99.79,,,,,Single-ply,SBD,F,
Girls,100.02,DQ,Emma England,Paris Chisum,99.06,,,,,Single-ply,SBD,F,
Girls,117.71,1,Amber Burrow,Mount Vernon,106.87,179.17,92.99,183.7,455.86,Single-ply,SBD,F,
Girls,117.71,2,Katarina Cassel,Rice,105.6,188.24,113.4,151.95,453.59,Single-ply,SBD,F,
Girls,117.71,3,Destiny Barron,Mount Vernon,113.94,176.9,65.77,158.76,401.43,Single-ply,SBD,F,
Girls,117.71,4,Hailey Herington,Winnsboro,114.49,142.88,97.52,149.69,390.09,Single-ply,SBD,F,
Girls,117.71,5,Delanie Spakes,Kemp,115.03,154.22,88.45,145.15,387.82,Single-ply,SBD,F,
Girls,117.71,6,Alice Billingsley,Kerens,100.52,149.69,92.99,136.08,378.75,Single-ply,SBD,F,
Girls,117.71,7,Bailey Acosta,Pollok Central,113.94,158.76,79.38,140.61,378.75,Single-ply,SBD,F,
Girls,117.71,8,Emily Turney,Palmer,106.32,163.29,77.11,131.54,371.95,Single-ply,SBD,F,
Girls,117.71,9,Presley Smith,Malakoff,112.49,138.35,65.77,142.88,347,Single-ply,SBD,F,
Girls,117.71,10,Hayley Holland,Elysian Fields,113.31,136.08,65.77,140.61,342.46,Single-ply,SBD,F,
Girls,117.71,DQ,Roddreka Blaylock,Diana New Diana,117.48,,,,,Single-ply,SBD,F,
Girls,117.71,DQ,Bailey Comeaux,Diboll,117.48,,,,,Single-ply,SBD,F,
Girls,117.71,DQ,Emalee Hendry,New London West Rusk,117.48,,,,,Single-ply,SBD,F,
Girls,117.71,DQ,Kiriyana Roland,Overton,111.67,138.35,,,,Single-ply,SBD,F,
Girls,117.71+,1,Kailyn Fisher,Trinity,120.38,226.8,131.54,199.58,557.92,Single-ply,SBD,F,
Girls,117.71+,2,Alondra Salinas,Troup,126.19,254.01,95.25,181.44,530.7,Single-ply,SBD,F,
Girls,117.71+,3,Courtney Bayer,Blooming Grove,125.74,185.97,99.79,145.15,430.91,Single-ply,SBD,F,
Girls,117.71+,4,Janiea Rose,Hawkins,133.72,133.81,97.52,179.17,410.5,Single-ply,SBD,F,
Girls,117.71+,5,Balie Tingle,Harleton,126.92,185.97,83.91,138.35,408.23,Single-ply,SBD,F,
Girls,117.71+,6,Arionna Davis,Grapeland,130.91,181.44,72.57,120.2,374.21,Single-ply,SBD,F,
Girls,117.71+,7,Saybra Maxfield,Pollok Central,142.52,106.59,74.84,129.27,310.71,Single-ply,SBD,F,
Girls,117.71+,8,Arielle Barnett,Grapeland,126.1,129.27,58.97,113.4,301.64,Single-ply,SBD,F,
Girls,117.71+,DQ,Adria Smith,Malakoff,150.96,,,,,Single-ply,SBD,F,
