Division,WeightClassKg,Place,Name,Team,BodyweightKg,Best3SquatKg,Best3BenchKg,Best3DeadliftKg,TotalKg,Equipment,Event,Sex,BirthDate
Boys,51.71,1,Alfred Garcia,San Antonio Southwest,47.99,113.4,65.77,127.01,306.17,Single-ply,SBD,M,
Boys,51.71,2,Devin McDole,Natalia,51.39,79.38,49.9,104.33,233.6,Single-ply,SBD,M,
Boys,55.79,1,Ricky Martinez,Pearsall,54.73,136.08,92.99,136.08,365.14,Single-ply,SBD,M,
Boys,55.79,DQ,Lionel Martinez,Dilley,55.68,88.45,65.77,,,Single-ply,SBD,M,
Boys,59.87,1,Christian Martinez,Hondo,59.43,158.76,97.52,172.37,428.64,Single-ply,SBD,M,
Boys,59.87,2,Anthony Garza,Natalia,58.99,117.93,79.38,136.08,333.39,Single-ply,SBD,M,
Boys,59.87,DQ,Fransico Rivera,Pearsall,59.43,154.22,,,,Single-ply,SBD,M,
Boys,67.13,1,Damien Rodriguez,Dilley,60.34,147.42,86.18,181.44,415.04,Single-ply,SBD,M,
Boys,67.13,2,Wyatt Owens,Natalia,64.89,154.22,68.04,181.44,403.7,Single-ply,SBD,M,
Boys,67.13,3,Devin Garza,Pearsall,60.82,154.22,90.72,149.69,394.63,Single-ply,SBD,M,
Boys,74.84,1,Adrian Hernandez,Pearsall,74.16,204.12,124.74,208.65,537.51,Single-ply,SBD,M,
Boys,74.84,2,Martin Moreno,Nixon Smiley,69.42,204.12,106.59,219.99,530.7,Single-ply,SBD,M,
Boys,74.84,3,Jhonathan Trevino,Dilley,68.88,149.69,86.18,183.7,419.57,Single-ply,SBD,M,
Boys,74.84,4,Roberto Hernandez,Natalia,72.13,156.49,68.04,165.56,390.09,Single-ply,SBD,M,
Boys,74.84,5,Diego Carrasco,Pearsall,71.33,133.81,86.18,145.15,365.14,Single-ply,SBD,M,
Boys,74.84,6,Sergio Garcia,San Antonio Southwest,71.22,142.88,74.84,131.54,349.27,Single-ply,SBD,M,
Boys,74.84,7,Roger Lopez,Poteet,72.14,136.08,61.23,136.08,333.39,Single-ply,SBD,M,
Boys,74.84,8,Armando Medel,Nixon Smiley,72.17,113.4,68.04,124.74,306.17,Single-ply,SBD,M,
Boys,74.84,DQ,Ernest Davila,Poteet,72.78,201.85,,,,Single-ply,SBD,M,
Boys,82.1,1,Eden Fuentes,Pearsall,79.86,213.19,136.08,235.87,585.13,Single-ply,SBD,M,
Boys,82.1,2,Ariel Hernandez #2,Pearsall,82.1,204.12,124.74,195.04,523.9,Single-ply,SBD,M,
Boys,82.1,3,Carlos Gonzalez,Dilley,81.66,197.31,106.59,192.78,496.68,Single-ply,SBD,M,
Boys,82.1,4,Michael Garza,San Antonio Southwest,78.51,195.04,95.25,158.76,449.06,Single-ply,SBD,M,
Boys,82.1,5,Jayden Cruz,San Antonio Southwest,77.34,117.93,88.45,117.93,324.32,Single-ply,SBD,M,
Boys,89.81,1,Micah Young,San Antonio Southside,89.31,274.42,142.88,263.08,680.39,Single-ply,SBD,M,
Boys,89.81,2,Ryan Pena,San Antonio Southwest,85.75,240.4,149.69,235.87,625.96,Single-ply,SBD,M,
Boys,89.81,3,Vicente Correa,Dilley,89.77,183.7,124.74,226.8,535.24,Single-ply,SBD,M,
Boys,89.81,4,Gabe Guajardo,Hondo,86.32,192.78,115.67,204.12,512.56,Single-ply,SBD,M,
Boys,89.81,5,Tex Anderson,Poteet,86.68,179.17,88.45,181.44,449.06,Single-ply,SBD,M,
Boys,89.81,6,Luis Macias,Poteet,88.95,133.81,83.91,151.95,369.68,Single-ply,SBD,M,
Boys,89.81,DQ,Ethan Acevado,Poteet,84.28,192.78,120.2,,,Single-ply,SBD,M,
Boys,99.79,1,Ray Leal,Pearsall,98.61,240.4,140.61,242.67,623.69,Single-ply,SBD,M,
Boys,99.79,2,Gaylen Garcia,Natalia,96.84,265.35,138.35,195.04,598.74,Single-ply,SBD,M,
Boys,99.79,3,Julian Moya,Poteet,99.18,210.92,156.49,197.31,564.72,Single-ply,SBD,M,
Boys,99.79,4,Jaden Quintera,San Antonio Southwest,97.25,151.95,111.13,151.95,415.04,Single-ply,SBD,M,
Boys,99.79,5,Kenneth Taylor,Pearsall,90.61,92.99,61.23,136.08,290.3,Single-ply,SBD,M,
Boys,109.77,1,Cody Wilkerson,San Antonio Southside,109.77,231.33,154.22,213.19,598.74,Single-ply,SBD,M,
Boys,109.77,2,Felipe Cuellar,Hondo,100.88,195.04,111.13,190.51,496.68,Single-ply,SBD,M,
Boys,109.77,3,Adrian Carrazco,Dilley,109.54,174.63,142.88,172.37,489.88,Single-ply,SBD,M,
Boys,109.77,4,Brandon Andreas,Hondo,105.73,176.9,108.86,170.1,455.86,Single-ply,SBD,M,
Boys,109.77,5,Sebastian Carrillo,Pearsall,108.07,158.76,90.72,142.88,392.36,Single-ply,SBD,M,
Boys,124.74,1,Kollin Meeks,Pearsall,120.02,281.23,161.03,210.92,653.17,Single-ply,SBD,M,
Boys,124.74,2,Dustin Soto,Natalia,119.48,235.87,151.95,226.8,614.62,Single-ply,SBD,M,
Boys,124.74,3,Brandon Rivas,Pearsall,112.26,219.99,138.35,226.8,585.13,Single-ply,SBD,M,
Boys,124.74,4,Julio Obregon,Hondo,114.17,192.78,124.74,188.24,505.76,Single-ply,SBD,M,
Boys,124.74,5,Gabriel Tijerina,Dilley,112.6,183.7,113.4,183.7,480.81,Single-ply,SBD,M,
Boys,124.74,6,Corbin Dunn,Poteet,113.87,185.97,129.27,165.56,480.81,Single-ply,SBD,M,
Boys,139.71,1,Jayden Miller #2,Poteet,131.27,265.35,161.03,215.46,641.83,Single-ply,SBD,M,
Boys,139.71,2,Robert III Gonzalez,Hondo,137.12,215.46,129.27,190.51,535.24,Single-ply,SBD,M,
Boys,139.71+,1,Alex Alvarez #2,Dilley,145.88,65.77,65.77,70.31,201.85,Single-ply,SBD,M,
Boys,,NS,Journey Rodriguez,Hondo,,,,,,Single-ply,SBD,M,
Boys,,NS,Jerod Segura,San Antonio Southwest,,,,,,Single-ply,SBD,M,
