Division,WeightClassKg,Place,Name,Team,BodyweightKg,Best3SquatKg,Best3BenchKg,Best3DeadliftKg,TotalKg,Equipment,Event,Sex,BirthDate
Boys,51.71,1,Austin Cuthbertson,Van Alstyne,50.8,174.63,102.06,165.56,442.25,Single-ply,SBD,M,
Boys,59.87,1,Caden Phillips,Van Alstyne,59.42,113.4,72.57,142.88,328.85,Single-ply,SBD,M,
Boys,59.87,2,Shawn Jones,Prosper Rock Hill,58.06,108.86,72.57,111.13,292.57,Single-ply,SBD,M,
Boys,67.13,1,Sam Wyatt,Van Alstyne,66.68,170.1,102.06,181.44,453.59,Single-ply,SBD,M,
Boys,67.13,2,Ryan Threat,Prosper Rock Hill,63.05,158.76,95.25,165.56,419.57,Single-ply,SBD,M,
Boys,74.84,1,Brett Long,Van Alstyne,72.57,185.97,95.25,197.31,478.54,Single-ply,SBD,M,
Boys,74.84,2,Austin Kibe,Prosper Rock Hill,73.03,158.76,92.99,181.44,433.18,Single-ply,SBD,M,
Boys,74.84,3,Foster Cataldie,Van Alstyne,73.48,156.49,102.06,149.69,408.23,Single-ply,SBD,M,
Boys,74.84,4,Ryan Wilson,Prosper Rock Hill,74.84,151.95,81.65,167.83,401.43,Single-ply,SBD,M,
Boys,74.84,5,Jacob Dean,Prosper Rock Hill,70.31,163.29,92.99,142.88,399.16,Single-ply,SBD,M,
Boys,89.81,1,Casy Adjei,Prosper Rock Hill,89.81,210.92,115.67,204.12,530.7,Single-ply,SBD,M,
Boys,99.79,1,Nick Loya,Van Alstyne,98.88,174.63,113.4,183.7,471.74,Single-ply,SBD,M,
Boys,99.79,2,Cooper Carroll,Van Alstyne,98.88,163.29,113.4,185.97,462.66,Single-ply,SBD,M,
Boys,124.74,1,Jacob Gallardo,Van Alstyne,116.57,249.48,142.88,231.33,623.69,Single-ply,SBD,M,
Boys,124.74,2,Matt Sermania,Prosper Rock Hill,113.4,138.35,104.33,183.7,426.38,Single-ply,SBD,M,
Boys,139.71,1,Grehson Coates-Garcia,Prosper Rock Hill,129.27,210.92,129.27,204.12,544.31,Single-ply,SBD,M,
