Division,WeightClassKg,Place,Name,Team,BodyweightKg,Best3SquatKg,Best3BenchKg,Best3DeadliftKg,TotalKg,Equipment,Event,Sex,BirthDate
Boys,51.71,1,Jamie Rios,Big Lake Reagan County,50.8,163.29,86.18,158.76,408.23,Single-ply,SBD,M,
Boys,51.71,DQ,Marcos Garcia,Sonora,51.62,97.52,,,,Single-ply,SBD,M,
Boys,55.79,1,Marcos Morin,Eldorado,55.61,90.72,56.7,106.59,254.01,Single-ply,SBD,M,
Boys,59.87,1,Jason Covarrubiaz,Eldorado,59.87,115.67,70.31,147.42,333.39,Single-ply,SBD,M,
Boys,59.87,2,Jose Contreras,Eldorado,59.78,97.52,68.04,136.08,301.64,Single-ply,SBD,M,
Boys,67.13,1,Jaime Buitron,Sonora,64.32,154.22,90.72,170.1,415.04,Single-ply,SBD,M,
Boys,67.13,2,Juan Ruiz,Sonora,60.33,151.95,86.18,165.56,403.7,Single-ply,SBD,M,
Boys,67.13,3,Tanner Flanagan,Sonora,66.13,136.08,72.57,149.69,358.34,Single-ply,SBD,M,
Boys,67.13,4,Ignacio Coronado,Sonora,61.69,136.08,81.65,136.08,353.8,Single-ply,SBD,M,
Boys,67.13,5,Gavin Gonzales,Junction,65.77,115.67,65.77,124.74,306.17,Single-ply,SBD,M,
Boys,74.84,1,Nate Gensler,Sonora,74.48,170.1,102.06,204.12,476.27,Single-ply,SBD,M,
Boys,74.84,2,Draven Valenzuela,Big Lake Reagan County,74.39,195.04,104.33,170.1,469.47,Single-ply,SBD,M,
Boys,74.84,3,Adam Sanchez,Sonora,72.94,158.76,106.59,181.44,446.79,Single-ply,SBD,M,
Boys,74.84,4,Korbin Covarrubiaz,Eldorado,71.58,133.81,102.06,174.63,410.5,Single-ply,SBD,M,
Boys,74.84,5,Jackson Carroll,Sonora,69.4,156.49,83.91,167.83,408.23,Single-ply,SBD,M,
Boys,74.84,6,Ricky Romo,Eldorado,71.67,113.4,61.23,140.61,315.25,Single-ply,SBD,M,
Boys,82.1,1,David Guerrero,Big Lake Reagan County,77.11,231.33,136.08,188.24,555.65,Single-ply,SBD,M,
Boys,82.1,2,Larry Telles,Junction,77.66,172.37,111.13,195.04,478.54,Single-ply,SBD,M,
Boys,82.1,3,Roman Rivero,Big Lake Reagan County,78.93,181.44,104.33,183.7,469.47,Single-ply,SBD,M,
Boys,82.1,4,Jonathan Lozano,Sonora,76.66,127.01,92.99,136.08,356.07,Single-ply,SBD,M,
Boys,82.1,5,Josh Lozano,Sonora,82.1,99.79,77.11,133.81,310.71,Single-ply,SBD,M,
Boys,82.1,6,Jacob Perez,Sonora,80.29,111.13,52.16,122.47,285.76,Single-ply,SBD,M,
Boys,89.81,1,Juan Saucedo,Big Lake Reagan County,89.81,226.8,140.61,208.65,576.06,Single-ply,SBD,M,
Boys,89.81,2,Rino Hernandez,Sonora,84.1,181.44,92.99,204.12,478.54,Single-ply,SBD,M,
Boys,89.81,3,Bryan Guiterrez,Big Lake Reagan County,89.36,158.76,102.06,161.03,421.84,Single-ply,SBD,M,
Boys,89.81,4,Garrett Porter,Eldorado,89.81,142.88,99.79,158.76,401.43,Single-ply,SBD,M,
Boys,89.81,5,Mario Fernandez,Sonora,84.19,145.15,106.59,142.88,394.63,Single-ply,SBD,M,
Boys,89.81,6,Isidro Rodriguez,Big Lake Reagan County,88.45,140.61,88.45,154.22,383.29,Single-ply,SBD,M,
Boys,109.77,1,Kevin Garcia,Junction,101.24,185.97,117.93,172.37,476.27,Single-ply,SBD,M,
Boys,109.77,2,Manual Davila,Big Lake Reagan County,105.23,181.44,117.93,142.88,442.25,Single-ply,SBD,M,
Boys,109.77,3,Seth Parker,Eldorado,107.77,163.29,99.79,167.83,430.91,Single-ply,SBD,M,
Boys,109.77,4,Vinny Pina,Eldorado,109.59,133.81,97.52,172.37,403.7,Single-ply,SBD,M,
Boys,124.74,1,Cesar Avila,Junction,119.39,238.14,108.86,204.12,551.11,Single-ply,SBD,M,
Boys,124.74,2,Marcos Villalobos,Sonora,113.94,195.04,108.86,181.44,485.34,Single-ply,SBD,M,
Boys,139.71+,1,Rafael Benavides,Junction,150.05,249.48,149.69,215.46,614.62,Single-ply,SBD,M,
