Division,WeightClassKg,Place,Name,Team,BodyweightKg,Best3SquatKg,Best3BenchKg,Best3DeadliftKg,TotalKg,Equipment,Event,Sex,BirthDate
Boys,55.79,1,Alex Salto,Manvel,54.52,99.79,83.91,136.08,319.78,Single-ply,SBD,M,
Boys,67.13,1,Zyran King-Brooks,Alvin Shadow Creek,66.77,149.69,99.79,172.37,421.84,Single-ply,SBD,M,
Boys,67.13,2,David Jimenez,Alvin Shadow Creek,65.5,117.93,81.65,163.29,362.87,Single-ply,SBD,M,
Boys,67.13,3,Hudson Lee,Stafford,62.14,127.01,63.5,142.88,333.39,Single-ply,SBD,M,
Boys,67.13,4,Oscar Cruz,Alvin Shadow Creek,66.77,108.86,68.04,136.08,312.98,Single-ply,SBD,M,
Boys,74.84,1,Andrew Riley,Manvel,74.84,181.44,122.47,181.44,485.34,Single-ply,SBD,M,
Boys,82.1,1,LaMarkus Owens,Manvel,80.78,235.87,136.08,238.14,610.08,Single-ply,SBD,M,
Boys,82.1,2,Isaiah Llorens,Stafford,79.47,195.04,124.74,199.58,519.36,Single-ply,SBD,M,
Boys,82.1,3,Noah Cruz,Manvel,79.83,183.7,122.47,208.65,514.83,Single-ply,SBD,M,
Boys,89.81,1,DeMonte Seymore,Manvel,88.5,242.67,142.88,247.21,632.76,Single-ply,SBD,M,
Boys,99.79,1,Brandon Jackson,Alvin Shadow Creek,99.06,208.65,145.15,215.46,569.26,Single-ply,SBD,M,
Boys,99.79,2,Nick Rideau,Stafford,94.44,172.37,106.59,199.58,478.54,Single-ply,SBD,M,
Boys,99.79,3,Nya Mack,Stafford,99.79,142.88,92.99,185.97,421.84,Single-ply,SBD,M,
Boys,99.79,4,Jonathen Whalen,Stafford,92.44,124.74,88.45,183.7,396.89,Single-ply,SBD,M,
Boys,109.77,1,Joshua Diaz,Alvin Shadow Creek,105.87,176.9,142.88,172.37,492.15,Single-ply,SBD,M,
Boys,109.77,DQ,Jose Carrizales,Alvin Shadow Creek,108.59,226.8,142.88,,,Single-ply,SBD,M,
Boys,124.74,1,Alex Williams,Manvel,113.13,213.19,149.69,208.65,571.53,Single-ply,SBD,M,
Boys,124.74,2,Travin Patt,Stafford,117.39,210.92,133.81,226.8,571.53,Single-ply,SBD,M,
Boys,124.74,3,Davin Collins,Stafford,113.94,201.85,147.42,204.12,553.38,Single-ply,SBD,M,
Boys,124.74,4,Sebastian Carrier,Stafford,118.93,165.56,145.15,235.87,546.58,Single-ply,SBD,M,
Boys,124.74,5,Julian Rodriguez,Alvin Shadow Creek,111.67,145.15,90.72,151.95,387.82,Single-ply,SBD,M,
Boys,139.71,1,Xavier Potts,Manvel,125.65,254.01,131.54,231.33,616.89,Single-ply,SBD,M,
Boys,139.71,2,John Fletcher,Manvel,131.54,235.87,147.42,222.26,605.55,Single-ply,SBD,M,
Boys,139.71,3,Jaden Edmonson,Manvel,132,208.65,136.08,226.8,571.53,Single-ply,SBD,M,
Boys,139.71,4,Francisco Elgueda-Gonzales,Alvin Shadow Creek,130.09,181.44,113.4,192.78,487.61,Single-ply,SBD,M,
Boys,139.71+,1,Devin Davis #2,Manvel,144.24,195.04,158.76,174.63,528.44,Single-ply,SBD,M,
