Division,WeightClassKg,Place,Name,Team,BodyweightKg,Best3SquatKg,Best3BenchKg,Best3DeadliftKg,TotalKg,Equipment,Event,Sex,BirthDate
Boys,51.71,1,Carlos Flores,Quitman,49.44,140.61,83.91,129.27,353.8,Single-ply,SBD,M,
Boys,55.79,1,Benjamin Barnett,Quitman,54.98,68.04,31.75,72.57,172.37,Single-ply,SBD,M,
Boys,59.87,1,Jack Tannenbaum,Quitman,58.97,145.15,72.57,165.56,383.29,Single-ply,SBD,M,
Boys,59.87,2,Matthew Smith,Quitman,59.78,115.67,72.57,129.27,317.51,Single-ply,SBD,M,
Boys,67.13,1,Bryan Morris,Quitman,64.86,190.51,102.06,172.37,464.93,Single-ply,SBD,M,
Boys,74.84,1,Mikey Pickering,Quitman,69.26,115.67,86.18,133.81,335.66,Single-ply,SBD,M,
Boys,74.84,2,Chance Ivie,Emory Rains,67.95,124.74,81.65,115.67,322.05,Single-ply,SBD,M,
Boys,82.1,1,Michael Hipp,Quitman,80.74,149.69,77.11,149.69,376.48,Single-ply,SBD,M,
Boys,89.81,1,Luke Murphy,Quitman,89.13,199.58,113.4,170.1,483.08,Single-ply,SBD,M,
Boys,89.81,2,Darryl Harris,Quitman,83.82,133.81,90.72,142.88,367.41,Single-ply,SBD,M,
Boys,99.79,1,Kolton Crawford,Emory Rains,97.43,165.56,86.18,161.03,412.77,Single-ply,SBD,M,
Boys,109.77,1,Jordan Montavo,Emory Rains,103.6,244.94,138.35,215.46,598.74,Single-ply,SBD,M,
Boys,109.77,2,Hunter Olivarez,Emory Rains,100.43,172.37,97.52,158.76,428.64,Single-ply,SBD,M,
Boys,124.74,1,Ty Jacobs,Emory Rains,121.56,283.5,149.69,188.24,621.42,Single-ply,SBD,M,
Boys,124.74,2,Austin Jones,Quitman,117.57,140.61,83.91,156.49,381.02,Single-ply,SBD,M,
Boys,124.74,3,Austin Tanner,Quitman,121.56,113.4,61.23,117.93,292.57,Single-ply,SBD,M,
