Division,WeightClassKg,Place,Name,Team,BodyweightKg,Best3SquatKg,Best3BenchKg,Best3DeadliftKg,TotalKg,Equipment,Event,Sex,BirthDate
Boys,51.71,1,Noah Estrada,Agua Dulce,51.07,129.27,79.38,145.15,353.8,Single-ply,SBD,M,
Boys,51.71,2,Michael Benavides,Agua Dulce,50.44,136.08,68.04,142.88,347,Single-ply,SBD,M,
Boys,51.71,3,Tanner Weaver,Orange Grove,51.71,113.4,65.77,124.74,303.91,Single-ply,SBD,M,
Boys,55.79,1,Donavon Longoria,Mathis,55.79,147.42,92.99,158.76,399.16,Single-ply,SBD,M,
Boys,55.79,2,Ethan Cavazos,Agua Dulce,55.16,127.01,79.38,131.54,337.93,Single-ply,SBD,M,
Boys,55.79,DQ,Trenton Budell,Orange Grove,55.79,,,,,Single-ply,SBD,M,
Boys,59.87,1,Bryan Gutierrez,Bishop,59.6,188.24,122.47,192.78,503.49,Single-ply,SBD,M,
Boys,59.87,2,Ezra Salazar,Corpus Christi Tuloso-Midway,59.69,161.03,92.99,172.37,426.38,Single-ply,SBD,M,
Boys,59.87,3,Joseph Rivera,Mathis,57.15,136.08,88.45,183.7,408.23,Single-ply,SBD,M,
Boys,59.87,4,Ryan Garcia,Corpus Christi London,59.87,158.76,92.99,151.95,403.7,Single-ply,SBD,M,
Boys,59.87,5,Xzander Espinosa,Freer,59.87,115.67,61.23,138.35,315.25,Single-ply,SBD,M,
Boys,67.13,1,Elyon Ybarra,Mathis,66.22,181.44,136.08,181.44,498.95,Single-ply,SBD,M,
Boys,67.13,2,Zach Smith,Orange Grove,67.13,204.12,97.52,192.78,494.42,Single-ply,SBD,M,
Boys,67.13,3,Ray Flores,Orange Grove,67.13,190.51,120.2,172.37,483.08,Single-ply,SBD,M,
Boys,67.13,4,Alex Gonzalez,Banquete,65.32,151.95,102.06,181.44,435.45,Single-ply,SBD,M,
Boys,67.13,5,Roel Garcia,Freer,66.5,151.95,95.25,156.49,403.7,Single-ply,SBD,M,
Boys,67.13,6,Juan Castillo,Bishop,64.32,142.88,92.99,158.76,394.63,Single-ply,SBD,M,
Boys,67.13,7,Ben Neely,Banquete,61.05,142.88,74.84,163.29,381.02,Single-ply,SBD,M,
Boys,67.13,8,Jacob Perez,Freer,62.14,136.08,81.65,158.76,376.48,Single-ply,SBD,M,
Boys,74.84,1,Marques Salinas,Freer,72.94,174.63,117.93,181.44,474,Single-ply,SBD,M,
Boys,74.84,DQ,CJ Tanguma,Mathis,72.57,,,,,Single-ply,SBD,M,
Boys,82.1,1,Jacob Charles,Corpus Christi London,81.56,215.46,124.74,229.06,569.26,Single-ply,SBD,M,
Boys,82.1,2,Gavin Gonzalez,Corpus Christi Tuloso-Midway,81.01,199.58,120.2,192.78,512.56,Single-ply,SBD,M,
Boys,82.1,3,Zedrick Deleon,Mathis,75.75,183.7,111.13,181.44,476.27,Single-ply,SBD,M,
Boys,82.1,4,Carson Cable,Corpus Christi London,76.38,165.56,102.06,174.63,442.25,Single-ply,SBD,M,
Boys,82.1,DQ,Ace Navarijo,Corpus Christi London,82.1,,,,,Single-ply,SBD,M,
Boys,82.1,DQ,Chiso Nwampka,Corpus Christi Tuloso-Midway,79.02,,,,,Single-ply,SBD,M,
Boys,89.81,1,Alan Rodriguez,Corpus Christi Tuloso-Midway,89.36,222.26,147.42,219.99,589.67,Single-ply,SBD,M,
Boys,89.81,2,Michael Guajardo,Corpus Christi Tuloso-Midway,85.18,195.04,108.86,204.12,508.02,Single-ply,SBD,M,
Boys,89.81,3,Eduardo Hernandez,Agua Dulce,85.28,172.37,102.06,208.65,483.08,Single-ply,SBD,M,
Boys,89.81,4,Steven Paschal,Bishop,86.18,158.76,108.86,181.44,449.06,Single-ply,SBD,M,
Boys,99.79,1,Nicholas Gutierrez,Mathis,99.79,249.48,113.4,204.12,566.99,Single-ply,SBD,M,
Boys,99.79,2,Victor DelBosque,Orange Grove,97.07,210.92,138.35,208.65,557.92,Single-ply,SBD,M,
Boys,99.79,3,Santos Castillo,Agua Dulce,97.43,217.72,115.67,190.51,523.9,Single-ply,SBD,M,
Boys,99.79,4,Carlos Vinton,Agua Dulce,91.44,197.31,117.93,199.58,514.83,Single-ply,SBD,M,
Boys,99.79,5,Kaleb Garza,Freer,90.72,181.44,99.79,167.83,449.06,Single-ply,SBD,M,
Boys,99.79,6,Peter Castro,Agua Dulce,96.16,149.69,95.25,188.24,433.18,Single-ply,SBD,M,
Boys,99.79,7,Jake Torres,Agua Dulce,96.89,167.83,81.65,161.03,410.5,Single-ply,SBD,M,
Boys,109.77,1,Ej Tarango,Freer,108.86,265.35,127.01,208.65,601.01,Single-ply,SBD,M,
Boys,109.77,2,Jesse Perez,Agua Dulce,107.5,226.8,147.42,206.38,580.6,Single-ply,SBD,M,
Boys,109.77,3,Dj Solorio,Banquete,101.7,226.8,122.47,226.8,576.06,Single-ply,SBD,M,
Boys,109.77,4,Isaac Martinez,Corpus Christi Tuloso-Midway,102.87,240.4,138.35,195.04,573.79,Single-ply,SBD,M,
Boys,109.77,5,AJ Obregon,Freer,105.23,240.4,142.88,183.7,566.99,Single-ply,SBD,M,
Boys,124.74,1,Dante DeLeon,Mathis,110.31,294.84,201.85,238.14,734.82,Single-ply,SBD,M,
Boys,124.74,2,Robert Kroen,Corpus Christi Tuloso-Midway,116.03,249.48,145.15,215.46,610.08,Single-ply,SBD,M,
Boys,124.74,3,Cael Hitchcock,Corpus Christi London,124.74,215.46,136.08,204.12,555.65,Single-ply,SBD,M,
Boys,124.74,4,Alberto Ibarra,Freer,111.04,219.99,108.86,165.56,494.42,Single-ply,SBD,M,
Boys,124.74,5,Donnie Mireles,Freer,111.13,197.31,104.33,174.63,476.27,Single-ply,SBD,M,
Boys,124.74,6,Javier Perez,Freer,113.76,181.44,81.65,145.15,408.23,Single-ply,SBD,M,
Boys,139.71,1,Damian Delgado,Bishop,128.82,233.6,147.42,204.12,585.13,Single-ply,SBD,M,
Boys,139.71,DQ,Aaron Lichtenberger,Corpus Christi London,125.28,215.46,142.88,,,Single-ply,SBD,M,
