Division,WeightClassKg,Place,Name,Team,BodyweightKg,Best3SquatKg,Best3BenchKg,Best3DeadliftKg,TotalKg,Equipment,Event,Sex,BirthDate
Boys,74.84,1,Mikey Martinez,Jacksboro,68.67,185.97,115.67,181.44,483.08,Single-ply,SBD,M,
Boys,74.84,2,Cayden McGhan,Brock,72.57,163.29,104.33,179.17,446.79,Single-ply,SBD,M,
Boys,74.84,3,Trey Pender,Santo,70.76,142.88,79.38,154.22,376.48,Single-ply,SBD,M,
Boys,74.84,4,Bryce Hunkapillar,Brock,68.86,136.08,70.31,127.01,333.39,Single-ply,SBD,M,
Boys,82.1,1,Randall Hamilton,Jacksboro,78.47,258.55,145.15,210.92,614.62,Single-ply,SBD,M,
Boys,82.1,2,Zac Brewster,Brock,76.48,174.63,102.06,192.78,469.47,Single-ply,SBD,M,
Boys,82.1,3,Michael Tallant,Santo,81.74,165.56,106.59,170.1,442.25,Single-ply,SBD,M,
Boys,82.1,4,Sone Cortez,Hawley,81.28,142.88,113.4,163.29,419.57,Single-ply,SBD,M,
Boys,89.81,1,Mathew Wilke,Brock,87.36,199.58,122.47,174.63,496.68,Single-ply,SBD,M,
Boys,89.81,2,Aiden Weathermon,Brock,84.19,142.88,81.65,176.9,401.43,Single-ply,SBD,M,
Boys,89.81,3,Brock Riker,Brock,88.81,142.88,88.45,158.76,390.09,Single-ply,SBD,M,
Boys,99.79,1,Kayden Mathews,Brock,97.79,195.04,136.08,233.6,564.72,Single-ply,SBD,M,
Boys,99.79,2,Allen Magga,Brock,97.16,163.29,113.4,167.83,444.52,Single-ply,SBD,M,
Boys,99.79,3,Aiden Hopkins,Santo,92.62,156.49,92.99,158.76,408.23,Single-ply,SBD,M,
Boys,99.79,4,Lex Laursen,Santo,98.16,145.15,92.99,158.76,396.89,Single-ply,SBD,M,
Boys,99.79,DQ,Brayden Smith,Santo,90.17,140.61,,138.35,,Single-ply,SBD,M,
Boys,124.74,1,Brett Hamilton,Santo,119.39,170.1,99.79,145.15,415.04,Single-ply,SBD,M,
Boys,124.74,2,Tres Myers,Jacksboro,111.13,170.1,86.18,142.88,399.16,Single-ply,SBD,M,
Boys,124.74,DQ,Andrew Olivarez,Jacksboro,121.29,219.99,113.4,,,Single-ply,SBD,M,
Boys,,NS,Joseph Dunn,Jacksboro,,,,,,Single-ply,SBD,M,
Boys,,NS,Camron Reeves,Jacksboro,,,,,,Single-ply,SBD,M,
Boys,,NS,Branden Firth,Santo,,,,,,Single-ply,SBD,M,
Boys,,NS,Benjamin Lindley,Brock,,,,,,Single-ply,SBD,M,
Boys,,NS,Landon Cearley,Brock,,,,,,Single-ply,SBD,M,
Boys,,NS,Zach Shivers,Brock,,,,,,Single-ply,SBD,M,
Boys,,NS,Colton Stephenson,Brock,,,,,,Single-ply,SBD,M,
Boys,,NS,Dez Jones,Brock,,,,,,Single-ply,SBD,M,
Boys,,NS,Riley Miller,Jacksboro,,,,,,Single-ply,SBD,M,
