Division,WeightClassKg,Place,Name,Team,BodyweightKg,Best3SquatKg,Best3BenchKg,Best3DeadliftKg,TotalKg,Equipment,Event,Sex,BirthDate
Boys,51.71,1,Javier Aleman,Karnes City,51.53,136.08,83.91,145.15,365.14,Single-ply,SBD,M,
Boys,51.71,2,Corey Casey,Del Valle,49.99,102.06,72.57,131.54,306.17,Single-ply,SBD,M,
Boys,51.71,3,Christopher Cancino,San Antonio Cole,51.53,102.06,70.31,122.47,294.84,Single-ply,SBD,M,
Boys,59.87,1,Fabio Reyes,Kyle Lehman,58.88,113.4,72.57,142.88,328.85,Single-ply,SBD,M,
Boys,59.87,2,Richardo Martinez,San Antonio Cole,59.06,97.52,72.57,124.74,294.84,Single-ply,SBD,M,
Boys,59.87,3,Matthew Tobias,Kyle Lehman,57.15,24.95,24.95,34.02,83.91,Single-ply,SBD,M,
Boys,67.13,1,Chase Hafer,San Antonio Cole,66.54,215.46,63.5,265.35,544.31,Single-ply,SBD,M,
Boys,67.13,2,Avery Marshall,Manor,67.13,183.7,99.79,190.51,474,Single-ply,SBD,M,
Boys,67.13,3,Jay Swain,Manor,62.78,149.69,92.99,183.7,426.38,Single-ply,SBD,M,
Boys,67.13,4,Nathaniel Crayton,Del Valle,65.41,138.35,92.99,161.03,392.36,Single-ply,SBD,M,
Boys,67.13,5,Tommy Bannon,San Antonio Cole,64.68,147.42,83.91,145.15,376.48,Single-ply,SBD,M,
Boys,67.13,6,Dylan Navarrette,Kyle Lehman,67.13,124.74,77.11,158.76,360.61,Single-ply,SBD,M,
Boys,67.13,7,Russell Lover,Karnes City,62.69,113.4,72.57,122.47,308.44,Single-ply,SBD,M,
Boys,74.84,1,Roman Mason,Pflugerville Connally,68.76,170.1,106.59,192.78,469.47,Single-ply,SBD,M,
Boys,74.84,2,Michael Kroll,Karnes City,70.49,151.95,115.67,195.04,462.66,Single-ply,SBD,M,
Boys,74.84,3,Joseph Nguyen,Pflugerville Connally,71.49,165.56,106.59,165.56,437.72,Single-ply,SBD,M,
Boys,74.84,4,Taiwo Atunrase,San Antonio Cole,69.04,115.67,86.18,145.15,347,Single-ply,SBD,M,
Boys,74.84,5,Sebastian Zambrano,Kyle Lehman,73.84,92.99,56.7,142.88,292.57,Single-ply,SBD,M,
Boys,82.1,1,Jabrion White,Manor,80.38,204.12,115.67,224.53,544.31,Single-ply,SBD,M,
Boys,82.1,2,Kevin Garza,Kyle Lehman,77.66,197.31,124.74,183.7,505.76,Single-ply,SBD,M,
Boys,82.1,3,Vincent Siv,Del Valle,80.1,185.97,120.2,188.24,494.42,Single-ply,SBD,M,
Boys,82.1,4,Aden Ramirez,Pflugerville Connally,80.56,174.63,92.99,188.24,455.86,Single-ply,SBD,M,
Boys,82.1,5,William Monroe,Del Valle,81.56,145.15,97.52,149.69,392.36,Single-ply,SBD,M,
Boys,82.1,6,Marshall Homeyer,Karnes City,77.02,124.74,106.59,156.49,387.82,Single-ply,SBD,M,
Boys,82.1,DQ,Aiden Gutierrez,Kyle Lehman,79.65,102.06,,133.81,,Single-ply,SBD,M,
Boys,89.81,1,Allen Romero,Del Valle,83.1,183.7,113.4,199.58,496.68,Single-ply,SBD,M,
Boys,89.81,2,Kamren Stone,Del Valle,82.92,154.22,104.33,172.37,430.91,Single-ply,SBD,M,
Boys,89.81,3,Levi Griffith,Kyle Lehman,85,142.88,83.91,183.7,410.5,Single-ply,SBD,M,
Boys,89.81,4,Joseph Campos,Del Valle,84.46,113.4,79.38,136.08,328.85,Single-ply,SBD,M,
Boys,99.79,1,Cirilo Gonzalez,Manor,95.35,244.94,174.63,238.14,657.71,Single-ply,SBD,M,
Boys,99.79,2,Steven Nava,Karnes City,96.25,219.99,124.74,213.19,557.92,Single-ply,SBD,M,
Boys,99.79,3,Andrew Segura,Del Valle,95.07,170.1,131.54,206.38,508.02,Single-ply,SBD,M,
Boys,99.79,4,Justin Santos,Pflugerville Connally,91.72,167.83,108.86,183.7,460.4,Single-ply,SBD,M,
Boys,99.79,5,Aidan Garza,Karnes City,94.8,156.49,83.91,172.37,412.77,Single-ply,SBD,M,
Boys,99.79,6,Chase Howell,San Antonio Cole,94.89,142.88,81.65,165.56,390.09,Single-ply,SBD,M,
Boys,99.79,7,Zack Halliburton,Kyle Lehman,98.34,124.74,83.91,151.95,360.61,Single-ply,SBD,M,
Boys,109.77,1,DJ Nunez,Karnes City,108.77,217.72,138.35,226.8,582.87,Single-ply,SBD,M,
Boys,109.77,2,Nick Luna,Kyle Lehman,109.77,192.78,108.86,183.7,485.34,Single-ply,SBD,M,
Boys,109.77,3,Solomon Barnoski,Karnes City,100.43,161.03,99.79,201.85,462.66,Single-ply,SBD,M,
Boys,109.77,4,Angel Martinez,Del Valle,108.41,147.42,106.59,145.15,399.16,Single-ply,SBD,M,
Boys,109.77,5,Derek Lopez,Karnes City,102.51,138.35,77.11,154.22,369.68,Single-ply,SBD,M,
Boys,109.77,6,Anthony Perez,Kyle Lehman,107.5,115.67,92.99,129.27,337.93,Single-ply,SBD,M,
Boys,109.77,7,Rylin Moore,Kyle Lehman,105.05,97.52,72.57,117.93,288.03,Single-ply,SBD,M,
Boys,109.77,DQ,Joaquin Ramirez,Kyle Lehman,103.6,120.2,,122.47,,Single-ply,SBD,M,
Boys,124.74,1,Diego Salazar,Pflugerville Connally,124.38,235.87,127.01,226.8,589.67,Single-ply,SBD,M,
Boys,124.74,2,Phillip Sedillo,Del Valle,115.94,192.78,145.15,226.8,564.72,Single-ply,SBD,M,
Boys,124.74,3,Marcus Tristan,Karnes City,124.65,174.63,102.06,172.37,449.06,Single-ply,SBD,M,
Boys,124.74,4,Dylan Gatica,Karnes City,111.77,172.37,104.33,167.83,444.52,Single-ply,SBD,M,
Boys,124.74,5,Francisco Quistian,Kyle Lehman,119.66,154.22,111.13,124.74,390.09,Single-ply,SBD,M,
Boys,139.71,1,Ty Thornton,Manor,129.27,249.48,183.7,272.16,705.34,Single-ply,SBD,M,
Boys,139.71+,1,Isaiah Arguello,Manor,157.22,233.6,158.76,240.4,632.76,Single-ply,SBD,M,
Boys,139.71+,2,Jacob Williams,Kyle Lehman,152.32,183.7,142.88,197.31,523.9,Single-ply,SBD,M,
Boys,139.71+,3,Ethan Lopez,Karnes City,171.64,158.76,111.13,158.76,428.64,Single-ply,SBD,M,
Boys,,NS,Andrew Vargas,Del Valle,,,,,,Single-ply,SBD,M,
Boys,,NS,Taj Johnson,Del Valle,,,,,,Single-ply,SBD,M,
Boys,,NS,Ian Collins,Manor,,,,,,Single-ply,SBD,M,
Boys,,NS,Jordan Moreno,Pflugerville Connally,,,,,,Single-ply,SBD,M,
Boys,,NS,Armand Kirland,Pflugerville Connally,,,,,,Single-ply,SBD,M,
Boys,,NS,Lincoln Wiech,Pflugerville Connally,,,,,,Single-ply,SBD,M,
Boys,,NS,Tiago Ogden,San Antonio Cole,,,,,,Single-ply,SBD,M,
