Division,WeightClassKg,Place,Name,Team,BodyweightKg,Best3SquatKg,Best3BenchKg,Best3DeadliftKg,TotalKg,Equipment,Event,Sex,BirthDate
Boys,51.71,1,Elijah Burrow,Gilmer,51.71,90.72,63.5,104.33,258.55,Single-ply,SBD,M,
Boys,59.87,1,Jabier Bocanegra,Gilmer,59.87,170.1,108.86,183.7,462.66,Single-ply,SBD,M,
Boys,74.84,1,Camden Ward,Gladewater Sabine,74.48,170.1,120.2,199.58,489.88,Single-ply,SBD,M,
Boys,74.84,2,Keegan Sprouse,Gilmer,74.84,154.22,115.67,213.19,483.08,Single-ply,SBD,M,
Boys,74.84,3,Matt Morgan,Gladewater Sabine,72.48,163.29,115.67,163.29,442.25,Single-ply,SBD,M,
Boys,74.84,4,JB Hill,Gladewater Sabine,72.12,165.56,95.25,163.29,424.11,Single-ply,SBD,M,
Boys,74.84,5,Riley Roys,Gladewater Sabine,73.21,151.95,102.06,163.29,417.3,Single-ply,SBD,M,
Boys,74.84,6,Landon Moses,Gladewater Sabine,72.21,147.42,88.45,154.22,390.09,Single-ply,SBD,M,
Boys,82.1,1,Kaden Richard,Gladewater Sabine,78.61,188.24,127.01,206.38,521.63,Single-ply,SBD,M,
Boys,82.1,2,Reed Thornburgh,Gladewater Sabine,80.83,136.08,97.52,163.29,396.89,Single-ply,SBD,M,
Boys,82.1,3,Tristan Peterson,Gladewater Sabine,79.51,147.42,90.72,156.49,394.63,Single-ply,SBD,M,
Boys,82.1,4,Korbin Colquitt,Gladewater Sabine,76.29,133.81,97.52,161.03,392.36,Single-ply,SBD,M,
Boys,89.81,1,Austin Stephens,Gladewater Sabine,82.96,163.29,102.06,170.1,435.45,Single-ply,SBD,M,
Boys,99.79,1,Taylor Wilson,Gladewater Sabine,97.07,192.78,142.88,185.97,521.63,Single-ply,SBD,M,
Boys,99.79,2,Taylor Nealy,Gilmer,95.25,199.58,131.54,181.44,512.56,Single-ply,SBD,M,
Boys,99.79,3,Nick Clark,Gilmer,95.25,172.37,99.79,158.76,430.91,Single-ply,SBD,M,
Boys,99.79,4,Aiden Arterberry,Gilmer,98.88,149.69,97.52,151.95,399.16,Single-ply,SBD,M,
Boys,109.77,1,Jarot Ritter,Gilmer,99.84,208.65,113.4,199.58,521.63,Single-ply,SBD,M,
Boys,109.77,2,Steven Calico,Gladewater Sabine,108.5,172.37,120.2,176.9,469.47,Single-ply,SBD,M,
Boys,124.74,1,Landon Manning,Gilmer,124.74,185.97,106.59,149.69,442.25,Single-ply,SBD,M,
Boys,139.71,1,Andrew Parker,Gilmer,129.27,215.46,151.95,210.92,578.33,Single-ply,SBD,M,
Boys,,NS,Seth Jordan,Gilmer,,,,,,Single-ply,SBD,M,
Boys,,NS,Tony Vincente,Gladewater Sabine,,,,,,Single-ply,SBD,M,
